<svg width="114" height="77" viewBox="0 0 114 77" fill="none" xmlns="http://www.w3.org/2000/svg">
<rect width="37.8169" height="37.8169" transform="matrix(-1 0 0 1 38.2924 38.7708)" fill="#EEEEDF"/>
<rect x="0.475586" y="68.7589" width="37.8169" height="7.82878" fill="#B2B296"/>
<ellipse cx="4.59957" cy="4.59579" rx="4.59957" ry="4.59579" transform="matrix(-1 0 0 1 16.2527 49.8205)" fill="#ADD66A"/>
<ellipse cx="4.59957" cy="4.59579" rx="4.59957" ry="4.59579" transform="matrix(-1 0 0 1 11.653 51.2646)" fill="#ADD66A"/>
<ellipse cx="3.35957" cy="3.35681" rx="3.35957" ry="3.35681" transform="matrix(-1 0 0 1 9.81476 47.7029)" fill="#ADD66A"/>
<path fill-rule="evenodd" clip-rule="evenodd" d="M10.0991 66.9713H32.2819C33.4416 66.9713 34.3818 66.0312 34.3818 64.8714V61.9725C33.5877 62.3642 32.6374 61.9018 32.4557 61.0352L31.6041 56.9737H10.0991C8.93941 56.9737 7.99927 57.9139 7.99927 59.0736V64.8714C7.99927 66.0312 8.93941 66.9713 10.0991 66.9713ZM19.7399 58.6795L18.2415 65.7717H20.7388V58.6795H19.7399ZM21.5384 58.6795L21.8998 65.7717L23.8514 65.0935L23.2009 58.6795H21.5384Z" fill="#D3D643"/>
<ellipse cx="27.6328" cy="66.9713" rx="2.43187" ry="2.218" fill="#898967"/>
<ellipse cx="14.9162" cy="66.9713" rx="2.43187" ry="2.218" fill="#898967"/>
<rect width="75.6337" height="75.6337" transform="matrix(-1 0 0 1 113.926 0.953949)" fill="#DEDEB8"/>
<path d="M96.9605 34.4296L77.4904 9.17136L56.7049 34.4296H96.9605Z" fill="#FB6700"/>
<path d="M102.749 46.2695L91.9614 39.1656H86.3047L78.4115 46.2695H102.749Z" fill="#FB6700"/>
<path d="M73.4124 46.2695L68.5449 39.1656H58.0206L49.3381 46.2695H73.4124Z" fill="#FB6700"/>
<path d="M102.749 53.505L94.3295 49.0322H86.9625L77.4904 53.505H102.749Z" fill="#FB6700"/>
<path d="M73.4124 54.1628L65.7823 49.6899H56.7049L48.5487 54.1628H73.4124Z" fill="#FB6700"/>
<path d="M103.67 61.0036L94.3295 56.1361H81.5687L76.5697 61.0036H103.67Z" fill="#FB6700"/>
<path d="M72.7546 61.0036L67.2294 56.1361H54.4686L48.5487 61.0036H72.7546Z" fill="#FB6700"/>
<path d="M103.67 68.3706L98.3421 63.7662H82.8842L75.846 68.3706H103.67Z" fill="#FB6700"/>
<path d="M71.7021 68.3706L67.2294 62.9769H54.4686L48.5487 68.3706H71.7021Z" fill="#FB6700"/>
</svg>
