<svg width="63" height="126" viewBox="0 0 63 126" fill="none" xmlns="http://www.w3.org/2000/svg">
<g id="Group 114">
<g id="Group 91">
<rect id="Rectangle 53" x="0.475586" y="63.002" width="62.5001" height="62.5001" fill="#E5DFEE"/>
<path id="Vector 14" d="M54.7139 103.872V97.7181L33.4032 101.023L7.87598 98.9716V105.353L14.1438 108.959L23.6026 109.985H36.4801L50.6114 106.949L54.7139 103.872Z" fill="#DECB1D"/>
<path id="Vector 13" d="M17.8133 97.8243L11.3379 94.0028L5.18115 98.992L14.9471 104.406H31.0821L49.7648 102.389L57.4077 96.4443L51.0386 91.0306L45.4126 96.4443L31.0821 97.8243H17.8133Z" fill="#FF9247"/>
<path id="Vector 15" d="M20.3282 93.3815L22.1558 97.298H17.6301L12.2341 93.3815L17.6301 89.0298L23.8966 89.8131L20.3282 93.3815Z" fill="#FF9247"/>
<g id="Vector 16">
<path d="M23.6477 92.1097L26.0338 89.5857H39.9325L42.4741 92.1097H23.6477Z" fill="#FA954F"/>
<path d="M23.6477 94.1985L24.7075 92.9914H40.8501L41.8152 94.1985H23.6477Z" fill="#FA954F"/>
<path d="M23.6477 95.9999L25.5162 94.6412L41.1736 94.8677L42.3382 95.9999H23.6477Z" fill="#FA954F"/>
<path d="M27.7883 88.4429L31.4897 83.9863L34.5912 88.4429H27.7883Z" fill="#FA954F"/>
</g>
</g>
<g id="Group 96">
<g id="Group 94">
<path id="Intersect" fill-rule="evenodd" clip-rule="evenodd" d="M0.475586 0.500793C34.9934 0.501496 62.9754 28.4839 62.9754 63.0019C28.4576 63.0012 0.475607 35.0188 0.475586 0.500793Z" fill="#DECB1D"/>
</g>
</g>
</g>
</svg>
