{
    "old": [
        {
            "key": "gedung",
            "title": "Denah Gedung",
            "desc": [
                {
                    "head": "Fasilkom: Pacil",
                    "body": [
                        "1: Gedung C",
                        "2: Gedung B",
                        "3: Belalai",
                        "4: Gedung A",
                        "5: Parkiran Motor",
                        "6: Parkiran Mobil",
                        "7: Fotokopi Senyum",
                        "8: Dinding bata",
                        "9: Kantin",
                        "10: Tenda Putih",
                        "11: Yoshinoya",
                        "12: Kayu Liar"

                    ]
                }
            ]
        },
        {
            "key": "a",
            "title": "Gedung A",
            "desc": [
                {
                    "head": "Lantai 1 - 2 :",
                    "body": [
                        "1: A1101",
                        "2: A1105",
                        "3: A1107",
                        "4: A1109",
                        "5: A1111",
                        "6: A1113",
                        "7: Toilet"
                    ]
                }
            ]
        },
        {
            "key": "b",
            "title": "Gedung B",
            "lantai": [
                {
                    "key": "b1",
                    "desc": [
                        "2101 : Aula",
                        "2102 : Gudang Aula (Gudal)",
                        "1 : Quiet Room (di lantai 2 Perpustakaan Fasilkom)",
                        "2 : Perpus Atas (Lantai 2 Perpustakaan Fasilkom)",
                        "3 : Perpustakaan Fasilkom (Perpucil)",
                        "4 : Perpus Bawah",
                        "5 : Mebu"
                    ]
                },
                {
                    "key": "b2",
                    "desc": [
                        "1 : Sekretariat Fasilkom",
                        "2 : Sekre Square",
                        "3 : Kafe Sekre",
                        "4 : Mushola Laki-laki",
                        "5 : Mushola Perempuan",
                        "6 : Ruang BEM",
                        "7 : Ruang RISTEK"
                    ]
                },
                {
                    "key": "b3",
                    "desc": [
                        "2301 - 2307 : Ruang Kelas"
                    ]
                },
                {
                    "key": "b4",
                    "desc": [
                        "2401 - 2406 : Ruang Kelas"
                    ]
                },
                {
                    "key": "b5",
                    "desc": [
                        "2501 - 2504 : Ruang Kelas"
                    ]
                },
                {
                    "key": "b6",
                    "desc": [
                        "2601 : Lab. Komputer",
                        "2602 - 2604 : Ruang Kelas"
                    ]
                }
            ]
        },
        {
            "key": "c",
            "title": "Gedung C",
            "desc": [
                {
                    "head": "Lantai 1:",
                    "body": [
                        "1: Kantin",
                        "2: Kantiv TV",
                        "3: ATM BNI",
                        "4: BelYos (Belakang Yoshinoya)",
                        "5: Yoshinoya",
                        "6: C3114",
                        "7: Toilet",
                        "8: C3111-C3112",
                        "9: C3113"
                    ]
                },
                {
                    "head": "Lantai 2-3:",
                    "body": [
                        "Ruang Dosen",
                        "Ruang Kelas",
                        "Lab. Komputer"
                    ]
                }
            ]
        }
    ],
    "baru": [
        {
            "desc": [
                "A. Halaman depan",
                "B. Plaza",
                "C. Pos Informasi dan Security",
                "D. Ruang Pompa",
                "---",
                "1. Ruang Arsip",
                "2. Ruang SDM",
                "3. Loket Akademik",
                "4. Ruang Sekre Akademik",
                "5. Ruang Keuangan",
                "6. Ruang Monitor",
                "7. Ruang IT",
                "8. Ruang Server",
                "9. Ruang & Gudang Fasum",
                "10. Ruang Kontrol",
                "11. Mushola Pria",
                "12. Mushola Wanita",
                "13. Toilet Difabel Unisex",
                "14. Ruang Panel"
            ]
        },
        {
            "desc": [
                "A. Plaza (Balkon)",
                "B. Balkon",
                "---",
                "1. R. Humas",
                "2. Lab Komputer (A101-A106)",
                "3. R. Kelas (A107-A110)",
                "4. Toilet Difabel Unisex",
                "5. R. Panel"
            ]
        },
        {
            "desc": [
                "A. Plaza (Beldit/Belakang Audit)",
                "B. Balkon",
                "---",
                "1. Auditorium Dr. Indro Suwandi",
                "2. R. Proyektor (Auditorium)",
                "3. R. Persiapan (Auditorium)",
                "4. R. Kelas (A206-A209)",
                "5. R. Tutorial",
                "6. Toilet Difabel Unisex",
                "7. R. Panel"
            ]
        },
        {
            "desc": [
                "1. Auditorium Dr. Indro Suwandi",
                "2. R. Proyektor (Auditorium)",
                "3. Lab Komputer (A301-A304)",
                "4. R. Kelas (A305-A306)"
            ]
        },
        {
            "desc": [
                "1. R. Dekan",
                "2. R. Wakil Dekan (A403-A404)",
                "3. R. Sekretaris Dekan",
                "4. R. Kaprodi (*01-02, *07-08)",
                "5. Faculty Lounge",
                "6. R. Rapat (A438-A439)",
                "7. R. Dosen (A410-A437)",
                "8. Toilet Difabel Unisex",
                "9. R. Panel"
            ]
        },
        {
            "desc": [
                "1. R. Rapat Besar",
                "2. Lab Riset (*01-04, *19-21)",
                "3. R. Dosen (A505-A516)",
                "4. Toilet Difabel Unisex",
                "5. R. Panel"
            ]
        },
        {
            "desc": [
                "1. Lab Tugas Akhir",
                "2. Lab Riset",
                "3. R. Dosen (*03-06, *13-14)",
                "4. R. Kelas (A607-A612)",
                "5. Toilet Difabel Unisex",
                "6. R. Panel"
            ]
        },
        {
            "desc": [
                "1. Lab Riset",
                "2. R. Seminar (A714-A715)",
                "3. R. Dosen (A703-A710)",
                "4. R. Postgraduate",
                "5. R. Kelas Postgrad",
                "6. Lounge Postgrad",
                "7. R. Kelas KI (A712-A713)",
                "8. Toilet Difabel Unisex",
                "9. R. Panel"
            ]
        }
    ]
}